[2021-06-25 16:58:24] [L] galaxy property is null or empty 
[2021-06-25 16:58:24] [L] Non-GB Project : Office Reader 
[2021-06-25 16:58:24] [L] allprojects : project : app 
[2021-06-25 16:58:24] [L] Non-GB Project : app 
[2021-06-25 16:58:24] [L] allprojects : project : nativetemplates 
[2021-06-25 16:58:24] [L] Non-GB Project : nativetemplates 
[2021-06-25 16:58:24] [L] allprojects : project : office 
[2021-06-25 16:58:24] [L] Non-GB Project : office 
[2021-06-25 16:58:24] [D] gradle projects loaded 
[2021-06-25 16:58:24] [I] set common default repository : samsung maven 
[2021-06-25 16:58:24] [I]     Default Repo : buildscript repository : http://10.252.250.53:8081/lm/content/groups/public/ 
[2021-06-25 16:58:24] [I]     Default Repo : repository : http://10.252.250.53:8081/lm/content/groups/public/ 
[2021-06-25 16:58:24] [I] set common default strategy 
[2021-06-25 16:58:24] [I] set common default repository : samsung maven 
[2021-06-25 16:58:24] [I]     Default Repo : buildscript repository : http://10.252.250.53:8081/lm/content/groups/public/ 
[2021-06-25 16:58:24] [I]     Default Repo : repository : http://10.252.250.53:8081/lm/content/groups/public/ 
[2021-06-25 16:58:24] [I] set common default strategy 
[2021-06-25 16:58:24] [I] set common default repository : samsung maven 
[2021-06-25 16:58:24] [I]     Default Repo : buildscript repository : http://10.252.250.53:8081/lm/content/groups/public/ 
[2021-06-25 16:58:24] [I]     Default Repo : repository : http://10.252.250.53:8081/lm/content/groups/public/ 
[2021-06-25 16:58:24] [I] set common default strategy 
[2021-06-25 16:58:24] [I] set common default repository : samsung maven 
[2021-06-25 16:58:24] [I]     Default Repo : buildscript repository : http://10.252.250.53:8081/lm/content/groups/public/ 
[2021-06-25 16:58:24] [I]     Default Repo : repository : http://10.252.250.53:8081/lm/content/groups/public/ 
[2021-06-25 16:58:24] [I] set common default strategy 
[2021-06-25 16:58:25] [D] gradle projects evaluated 
